…
scale_colour_discrete = scale_colour_viridis_d
scale_fill_discrete = scale_fill_viridis_d
```

``` r
library(p8105.datasets)
data("instacart")
```

``` r
instacart
```

    ## # A tibble: 1,384,617 × 15
    ##    order_id product_id add_to_cart_order reordered user_id eval_set order_number
    ##       <int>      <int>             <int>     <int>   <int> <chr>           <int>
    ##  1        1      49302                 1         1  112108 train               4
    ##  2        1      11109                 2         1  112108 train               4
    ##  3        1      10246                 3         0  112108 train               4
    ##  4        1      49683                 4         0  112108 train               4
    ##  5        1      43633                 5         1  112108 train               4
    ##  6        1      13176                 6         0  112108 train               4
    ##  7        1      47209                 7         0  112108 train               4
    ##  8        1      22035                 8         1  112108 train               4
    ##  9       36      39612                 1         0   79431 train              23
    ## 10       36      19660                 2         1   79431 train              23
    ## # ℹ 1,384,607 more rows
    ## # ℹ 8 more variables: order_dow <int>, order_hour_of_day <int>,
    ## #   days_since_prior_order <int>, product_name <chr>, aisle_id <int>,
    ## #   department_id <int>, aisle <chr>, department <chr>

The dataset contains 138461 observations and 15 variables. Each
observation is a single product from an Instacart order. Key variables
include order_id: a different ID for each order; product_id: a different
ID for each product and product_name which is the name of the product.
The example product  
Bulgarian Yogurt has unique product id 49302 belong to yogurt aisel is
in order id 1 and has reordered once.

``` r
instacart|>
  count(aisle, sort = TRUE)
```

    ## # A tibble: 134 × 2
    ##    aisle                              n
    ##    <chr>                          <int>
    ##  1 fresh vegetables              150609
    ##  2 fresh fruits                  150473
    ##  3 packaged vegetables fruits     78493
    ##  4 yogurt                         55240
    ##  5 packaged cheese                41699
    ##  6 water seltzer sparkling water  36617
    ##  7 milk                           32644
    ##  8 chips pretzels                 31269
    ##  9 soy lactosefree                26240
    ## 10 bread                          23635
    ## # ℹ 124 more rows
…
